
            <h1 class="postTitle">
                <a id="cb_post_title_url" class="postTitle2 vertical-middle" href="https://www.cnblogs.com/dayue-bc/p/18960637" title="发布于 2025-07-01 23:39">
    <span role="heading" aria-level="2">RESTful API 设计原则深度解析</span>
    

</a>

            </h1>
            <div class="clear"></div>
            <div class="postBody">
                    <div id="cnblogs_post_description" style="display: none">
        
        在 Web 服务架构中，RESTful API作为一种轻量级、可扩展的接口设计风格，通过 HTTP 协议实现资源的标准化访问。
    </div>
<div id="cnblogs_post_body" class="blogpost-body cnblogs-markdown">
<blockquote>
<p>在 Web 服务架构中，<strong>RESTful API</strong>作为一种轻量级、可扩展的接口设计风格，通过 HTTP 协议实现资源的标准化访问。本文从核心原则、URL 设计、HTTP 方法应用、状态管理及面试高频问题五个维度，结合工程实践与反例分析，系统解析 RESTful API 的设计规范与最佳实践。</p>
</blockquote>
<h2 id="一restful-核心原则与架构约束">一、RESTful 核心原则与架构约束</h2>
<h3 id="11-六大核心原则">1.1 六大核心原则</h3>
<table>
<thead>
<tr>
<th>原则</th>
<th>定义</th>
<th>设计目标</th>
</tr>
</thead>
<tbody>
<tr>
<td><strong>资源导向</strong></td>
<td>以资源（Resource）为核心，而非操作（如 “用户” 而非 “获取用户”）</td>
<td>符合大众认知，提升 API 可读性</td>
</tr>
<tr>
<td><strong>无状态</strong></td>
<td>服务器不存储客户端状态，每次请求需包含所有必要信息</td>
<td>简化服务器设计，支持水平扩展</td>
</tr>
<tr>
<td><strong>统一接口</strong></td>
<td>通过 URI、HTTP 方法、媒体类型实现统一交互模式</td>
<td>降低学习成本，增强接口一致性</td>
</tr>
<tr>
<td><strong>可缓存</strong></td>
<td>响应需明确标记是否可缓存，减少重复请求</td>
<td>提升性能，降低服务器负载</td>
</tr>
<tr>
<td><strong>客户端 - 服务器</strong></td>
<td>分离客户端与服务器职责，客户端负责 UI，服务器负责数据存储</td>
<td>独立演化，增强系统模块化</td>
</tr>
<tr>
<td><strong>分层系统</strong></td>
<td>客户端无法区分直接访问服务器还是中间层（如网关）</td>
<td>支持负载均衡、安全代理等中间件</td>
</tr>
</tbody>
</table>
<h3 id="12-与-rpc-风格的本质区别">1.2 与 RPC 风格的本质区别</h3>
<table>
<thead>
<tr>
<th>维度</th>
<th>RESTful API</th>
<th>RPC（如 Dubbo/GraphQL）</th>
</tr>
</thead>
<tbody>
<tr>
<td>核心抽象</td>
<td>资源（名词）</td>
<td>操作（动词）</td>
</tr>
<tr>
<td>交互方式</td>
<td>基于 HTTP 语义（GET/POST 等）</td>
<td>自定义协议或 HTTP 包装（如 POST+Action 参数）</td>
</tr>
<tr>
<td>可缓存性</td>
<td>天然支持（依赖 HTTP 缓存机制）</td>
<td>需额外实现缓存逻辑</td>
</tr>
<tr>
<td>可读性</td>
<td>强（URL 自解释）</td>
<td>弱（依赖文档）</td>
</tr>
<tr>
<td>适用场景</td>
<td>跨系统集成（如开放平台）</td>
<td>内部服务调用（高性能需求）</td>
</tr>
</tbody>
</table>
<h2 id="二url-设计规范与最佳实践">二、URL 设计规范与最佳实践</h2>
<h3 id="21-资源命名原则">2.1 资源命名原则</h3>
<h4 id="1-核心规则">1. 核心规则</h4>
<ul>
<li>
<p><strong>使用名词复数</strong>：表示资源集合（如<code>/users</code>而非<code>/user</code>）。</p>
</li>
<li>
<p><strong>避免动词</strong>：资源操作通过 HTTP 方法表达（如<code>GET /users</code>而非<code>/getUsers</code>）。</p>
</li>
<li>
<p><strong>层级结构</strong>：通过 URL 路径表示资源间关系（如<code>/users/{id}/orders</code>表示用户的订单）。</p>
</li>
</ul>
<h4 id="2-正反例对比">2. 正反例对比</h4>
<table>
<thead>
<tr>
<th>场景</th>
<th>错误示例</th>
<th>正确示例</th>
</tr>
</thead>
<tbody>
<tr>
<td>用户资源集合</td>
<td><code>/getUsers</code>、<code>/userList</code></td>
<td><code>/users</code></td>
</tr>
<tr>
<td>单个用户资源</td>
<td><code>/user?id=1</code>、<code>/getUser/1</code></td>
<td><code>/users/1</code></td>
</tr>
<tr>
<td>用户的订单</td>
<td><code>/userOrders?userId=1</code></td>
<td><code>/users/1/orders</code></td>
</tr>
<tr>
<td>搜索用户</td>
<td><code>/searchUsers?name=xxx</code></td>
<td><code>/users?name=xxx</code></td>
</tr>
</tbody>
</table>
<h3 id="22-避免过度嵌套">2.2 避免过度嵌套</h3>
<h4 id="1-嵌套层级限制">1. 嵌套层级限制</h4>
<ul>
<li>建议 URL 深度不超过 3 层，超过时通过查询参数简化：</li>
</ul>
<pre><code># 复杂嵌套（不推荐） 
/users/1/orders/123/items/456   
# 简化方案（推荐）   
/items/456?orderId=123&amp;userId=1   
</code></pre>
<h4 id="2-资源标识唯一性">2. 资源标识唯一性</h4>
<ul>
<li>每个资源应有全局唯一的 URL，避免依赖上下文：
<ul>
<li>正确：<code>/orders/123</code>（订单可独立访问）</li>
<li>错误：<code>/users/1/orders/123</code>（订单依赖用户上下文）</li>
</ul>
</li>
</ul>
<h3 id="23-过滤分页与排序">2.3 过滤、分页与排序</h3>
<h4 id="1-过滤参数">1. 过滤参数</h4>
<ul>
<li>使用查询参数实现灵活过滤（避免 URL 路径硬编码）：</li>
</ul>
<pre><code># 筛选状态为active的用户   
GET /users?status=active&amp;role=admin   
</code></pre>
<h4 id="2-分页参数">2. 分页参数</h4>
<ul>
<li>标准化分页参数（<code>page</code>页码，<code>size</code>每页条数）：</li>
</ul>
<pre><code>GET /users?page=2&amp;size=20 
</code></pre>
<ul>
<li>响应中包含分页元数据：</li>
</ul>
<pre><code>{ 
 "data": [...],   
 "pagination": {   
   "total": 100,   
   "page": 2,   
   "size": 20,   
   "pages": 5   
 }   
} 
</code></pre>
<h4 id="3-排序参数">3. 排序参数</h4>
<ul>
<li>通过<code>sort</code>参数指定排序字段与方向：</li>
</ul>
<pre><code># 按创建时间降序，姓名升序   
GET /users?sort=createdAt,desc&amp;sort=name,asc   
</code></pre>
<h2 id="三http-方法与状态码的语义化应用">三、HTTP 方法与状态码的语义化应用</h2>
<h3 id="31-http-方法与-crud-映射">3.1 HTTP 方法与 CRUD 映射</h3>
<table>
<thead>
<tr>
<th>方法</th>
<th>操作类型</th>
<th>幂等性</th>
<th>示例 URL</th>
<th>描述</th>
</tr>
</thead>
<tbody>
<tr>
<td>GET</td>
<td>查询</td>
<td>是</td>
<td><code>/users</code></td>
<td>获取资源集合</td>
</tr>
<tr>
<td>GET</td>
<td>查询</td>
<td>是</td>
<td><code>/users/1</code></td>
<td>获取单个资源</td>
</tr>
<tr>
<td>POST</td>
<td>创建</td>
<td>否</td>
<td><code>/users</code></td>
<td>创建新资源（服务器生成 ID）</td>
</tr>
<tr>
<td>PUT</td>
<td>全量更新</td>
<td>是</td>
<td><code>/users/1</code></td>
<td>替换资源所有字段</td>
</tr>
<tr>
<td>PATCH</td>
<td>部分更新</td>
<td>是</td>
<td><code>/users/1</code></td>
<td>更新资源部分字段</td>
</tr>
<tr>
<td>DELETE</td>
<td>删除</td>
<td>是</td>
<td><code>/users/1</code></td>
<td>删除指定资源</td>
</tr>
</tbody>
</table>
<h3 id="32-幂等性与安全性">3.2 幂等性与安全性</h3>
<ul>
<li><strong>安全性</strong>：GET/HEAD 方法不应修改资源状态（仅查询）。</li>
<li><strong>幂等性</strong>：多次调用产生相同结果（GET/PUT/DELETE 是幂等的，POST 非幂等）。
<ul>
<li>反例：使用<code>POST /users/1</code>更新用户（非幂等，应使用 PUT）。</li>
</ul>
</li>
</ul>
<h3 id="33-状态码的精确使用">3.3 状态码的精确使用</h3>
<h4 id="1-成功状态码2xx">1. 成功状态码（2xx）</h4>
<table>
<thead>
<tr>
<th>状态码</th>
<th>含义</th>
<th>适用场景</th>
</tr>
</thead>
<tbody>
<tr>
<td>200</td>
<td>OK（成功）</td>
<td>GET/PUT/PATCH 请求成功并返回数据</td>
</tr>
<tr>
<td>201</td>
<td>Created（已创建）</td>
<td>POST 请求成功创建资源（返回 Location 头）</td>
</tr>
<tr>
<td>204</td>
<td>No Content（无内容）</td>
<td>DELETE 请求成功（无需返回数据）</td>
</tr>
</tbody>
</table>
<h4 id="2-客户端错误4xx">2. 客户端错误（4xx）</h4>
<table>
<thead>
<tr>
<th>状态码</th>
<th>含义</th>
<th>适用场景</th>
</tr>
</thead>
<tbody>
<tr>
<td>400</td>
<td>Bad Request</td>
<td>请求参数错误（如格式不正确）</td>
</tr>
<tr>
<td>401</td>
<td>Unauthorized</td>
<td>未认证（如缺少 Token）</td>
</tr>
<tr>
<td>403</td>
<td>Forbidden</td>
<td>已认证但无权限</td>
</tr>
<tr>
<td>404</td>
<td>Not Found</td>
<td>资源不存在</td>
</tr>
<tr>
<td>409</td>
<td>Conflict</td>
<td>请求冲突（如创建重复资源）</td>
</tr>
<tr>
<td>429</td>
<td>Too Many Requests</td>
<td>请求频率超限（限流场景）</td>
</tr>
</tbody>
</table>
<h4 id="3-服务器错误5xx">3. 服务器错误（5xx）</h4>
<table>
<thead>
<tr>
<th>状态码</th>
<th>含义</th>
<th>适用场景</th>
</tr>
</thead>
<tbody>
<tr>
<td>500</td>
<td>Internal Server Error</td>
<td>服务器未知错误</td>
</tr>
<tr>
<td>503</td>
<td>Service Unavailable</td>
<td>服务暂时不可用（如维护中）</td>
</tr>
</tbody>
</table>
<h2 id="四请求与响应设计">四、请求与响应设计</h2>
<h3 id="41-请求体规范">4.1 请求体规范</h3>
<ul>
<li><strong>创建资源（POST）</strong>：请求体包含资源完整字段（不含 ID，由服务器生成）。</li>
</ul>
<pre><code>// POST /users   
{   
 "name": "Alice",   
 "email": "alice@example.com"   
} 
</code></pre>
<ul>
<li><strong>部分更新（PATCH）</strong>：仅包含需修改的字段（使用 JSON Merge Patch 格式）。</li>
</ul>
<pre><code>// PATCH /users/1   
{   
 "email": "new-alice@example.com"   
} 
</code></pre>
<h3 id="42-响应体结构">4.2 响应体结构</h3>
<h4 id="1-统一格式">1. 统一格式</h4>
<pre><code>{ 
 "code": 200,          // 业务码（可选，补充HTTP状态码）   
 "message": "success", // 提示信息   
 "data": { ... },      // 业务数据（成功时返回）   
 "errors": [ ... ]     // 错误详情（失败时返回）   
} 
</code></pre>
<h4 id="2-分页响应示例">2. 分页响应示例</h4>
<pre><code>{ 
 "data": [   
   {"id": 1, "name": "Alice"},   
   {"id": 2, "name": "Bob"}   
 ], 
 "pagination": {   
   "total": 100,   
   "page": 1,   
   "size": 20,   
   "links": {   
     "next": "/users?page=2&amp;size=20",   
     "prev": null   
   }   
 }   
} 
</code></pre>
<h3 id="43-hateoas超媒体驱动">4.3 HATEOAS（超媒体驱动）</h3>
<ul>
<li><strong>核心思想</strong>：响应中包含资源相关操作的 URL，客户端通过链接导航（如 REST 成熟度模型 Level 3）。</li>
<li><strong>示例</strong>：</li>
</ul>
<pre><code>{   
 "id": 1,   
 "name": "Alice",   
 "links": [   
   {"rel": "self", "href": "/users/1"},   
   {"rel": "orders", "href": "/users/1/orders"},   
   {"rel": "edit", "href": "/users/1", "method": "PUT"}   
 ]   
} 
</code></pre>
<h2 id="五api-版本控制与扩展性">五、API 版本控制与扩展性</h2>
<h3 id="51-版本控制策略">5.1 版本控制策略</h3>
<table>
<thead>
<tr>
<th>策略</th>
<th>实现方式</th>
<th>优点</th>
<th>缺点</th>
</tr>
</thead>
<tbody>
<tr>
<td><strong>URL 路径</strong></td>
<td><code>/v1/users</code>、<code>/v2/users</code></td>
<td>直观，易于测试</td>
<td>URL 冗余，升级需修改路径</td>
</tr>
<tr>
<td><strong>请求头</strong></td>
<td><code>Accept: application/vnd.example.v1+json</code></td>
<td>无 URL 污染</td>
<td>不直观，客户端实现复杂</td>
</tr>
<tr>
<td><strong>查询参数</strong></td>
<td><code>/users?version=1</code></td>
<td>简单，兼容旧版本</td>
<td>易被忽略，缓存困难</td>
</tr>
</tbody>
</table>
<h4 id="推荐方案url-路径版本控制如v1users平衡可读性与兼容性">推荐方案：URL 路径版本控制（如<code>/v1/users</code>），平衡可读性与兼容性。</h4>
<h3 id="52-向后兼容原则">5.2 向后兼容原则</h3>
<ol>
<li><strong>新增字段</strong>：响应中新增字段不影响旧客户端（客户端应忽略未知字段）。</li>
<li><strong>弃用机制</strong>：通过<code>Deprecation</code>响应头标记即将移除的 API（如<code>Deprecation: true</code>）。</li>
<li><strong>渐进式升级</strong>：新版本 API 保持对旧版本数据格式的兼容（如支持<code>v1</code>和<code>v2</code>共存）。</li>
</ol>
<h2 id="六面试高频问题深度解析">六、面试高频问题深度解析</h2>
<h3 id="61-基础概念类问题">6.1 基础概念类问题</h3>
<p><strong>Q：RESTful API 的 “无状态” 原则是什么？为什么重要？</strong></p>
<p>A：</p>
<ul>
<li>定义：服务器不存储客户端会话状态，每次请求需包含所有必要信息（如认证 Token、资源 ID）。</li>
<li>重要性：</li>
</ul>
<ol>
<li>简化服务器设计（无需维护会话存储）。</li>
<li>支持水平扩展（任意服务器可处理任意请求）。</li>
<li>增强系统可靠性（无会话数据丢失风险）。</li>
</ol>
<p><strong>Q：如何区分 PUT 和 PATCH 方法？</strong></p>
<p>A：</p>
<ul>
<li><strong>PUT</strong>：全量更新，需提供资源完整字段（缺失字段可能被置空）。</li>
<li><strong>PATCH</strong>：部分更新，仅提供需修改的字段（未提及字段保持不变）。</li>
<li>示例：更新用户邮箱时，PUT 需提交所有用户字段，PATCH 仅提交<code>email</code>字段。</li>
</ul>
<h3 id="62-设计决策类问题">6.2 设计决策类问题</h3>
<p><strong>Q：如何设计一个支持复杂查询的 RESTful API？</strong></p>
<p>A：</p>
<ol>
<li><strong>查询参数组合</strong>：使用<code>&amp;</code>连接多个条件（如<code>/users?status=active&amp;role=admin&amp;page=1</code>）。</li>
<li><strong>高级过滤</strong>：支持表达式（如<code>/orders?``total.gt``=100&amp;``createdAt.lt``=2023-01-01</code>）。</li>
<li><strong>自定义查询语言</strong>：复杂场景可引入轻量级查询语法（如<code>filter=status eq 'active' and role in ('admin')</code>）。<br>
<strong>Q：当资源存在多层嵌套关系时（如 “用户→订单→商品”），如何设计 URL？</strong></li>
</ol>
<p>A：</p>
<ul>
<li>避免过度嵌套，采用 “扁平化 + 查询参数”：
<ul>
<li>推荐：<code>/items?orderId=123</code>（直接访问商品，通过参数关联订单）。</li>
<li>不推荐：<code>/users/1/orders/123/items</code>（层级过深，依赖上下文）。</li>
</ul>
</li>
</ul>
<h3 id="63-实战问题类问题">6.3 实战问题类问题</h3>
<p><strong>Q：如何处理 API 的分页、排序和过滤？</strong></p>
<p>A：</p>
<ol>
<li><strong>分页</strong>：使用<code>page</code>（页码）和<code>size</code>（每页条数）参数，响应包含总条数和分页链接。</li>
<li><strong>排序</strong>：使用<code>sort</code>参数指定字段和方向（如<code>sort=createdAt,desc</code>）。</li>
<li><strong>过滤</strong>：基础过滤用简单参数（<code>status=active</code>），复杂过滤用专用参数（<code>filter=...</code>）。<br>
<strong>Q：如何保证 RESTful API 的安全性？</strong></li>
</ol>
<p>A：</p>
<ol>
<li><strong>认证</strong>：使用 JWT 或 OAuth2.0（通过<code>Authorization</code>头传递 Token）。</li>
<li><strong>授权</strong>：基于角色的访问控制（如<code>/admin/users</code>仅管理员可访问）。</li>
<li><strong>数据校验</strong>：所有请求参数需验证（如长度、格式、权限）。</li>
<li><strong>防滥用</strong>：实现限流（429 状态码）、HTTPS 加密传输。</li>
</ol>
<h2 id="总结restful-api-设计的核心价值">总结：RESTful API 设计的核心价值</h2>
<h3 id="核心优势">核心优势</h3>
<ul>
<li><strong>可读性强</strong>：URL 自解释，降低沟通成本（如<code>/users/1/orders</code>直观表示用户订单）。</li>
<li><strong>扩展性好</strong>：无状态设计支持水平扩展，适应高并发场景。</li>
<li><strong>生态兼容</strong>：基于 HTTP 标准，可复用缓存、代理等基础设施。</li>
</ul>
<h3 id="面试应答策略">面试应答策略</h3>
<ul>
<li><strong>场景化设计</strong>：面对 “如何设计用户管理 API” 时，按 “资源定义→URL 结构→方法映射→状态码” 分步骤回答。</li>
<li><strong>权衡决策</strong>：解释设计选择的理由（如 “用 URL 路径版本控制而非请求头，因为团队更易理解”）。</li>
<li><strong>反例规避</strong>：主动提及常见错误（如动词 URL、错误状态码使用），展示深度理解。</li>
</ul>
<p>通过系统化掌握 RESTful API 的设计原则与实践技巧，既能应对 “如何设计开放平台 API” 等综合场景，也能精准回答 “PUT 与 PATCH 的区别” 等细节问题，展现高级程序员对 Web 服务架构的系统化理解与工程落地能力。</p>

</div>
<div class="clear"></div>

            </div>
            <div class="postDesc">posted @ 
<span id="post-date" data-last-update-days="0.0020833333333333333" data-date-updated="2025-07-01 23:42">2025-07-01 23:39</span>&nbsp;
<a href="https://www.cnblogs.com/dayue-bc">晴空月明</a>&nbsp;
阅读(<span id="post_view_count">225</span>)&nbsp;
评论(<span id="post_comment_count">1</span>)&nbsp;
&nbsp;
<a href="javascript:void(0)" onclick="AddToWz(18960637);return false;">收藏</a>&nbsp;
<a href="javascript:void(0)" onclick="reportManager.report({ currentUserId: '', targetType: 'blogPost', targetId: '18960637', targetLink: 'https://www.cnblogs.com/dayue-bc/p/18960637', title: 'RESTful API 设计原则深度解析' })">举报</a>
</div>
        